homework_week11_day2.utf8
…
More men died than women

The lower the passenger class, the more people died

Some of the figures in this dataset drive home just how horrific this event was: Twenty-nine children aged 12 and under lost their lives in the disaster; one of them was travelling without a parent - he was on his way to visit them in America. Even amongst all these terrible figures, this is a particularly harrowing thought.

titanic_set %>% 
  mutate(no_parents_on_board = parch) %>% 
  filter(age <= 12,
         survived == FALSE) %>% 
  select(name, age, no_parents_on_board) %>% 
  arrange(no_parents_on_board,age)

## # A tibble: 29 x 3
##    name                             age no_parents_on_board
##    <chr>                          <dbl>               <dbl>
##  1 Hassan, Mr. Houssein G N          11                   0
##  2 Panula, Master. Eino Viljami       1                   1
##  3 Palsson, Master. Gosta Leonard     2                   1
##  4 Rice, Master. Eugene               2                   1
##  5 Strom, Miss. Telma Matilda         2                   1
##  6 Panula, Master. Urho Abraham       2                   1
##  7 Palsson, Miss. Stina Viola         3                   1
##  8 Rice, Master. Arthur               4                   1
##  9 Panula, Master. Juha Niilo         7                   1
## 10 Rice, Master. Eric                 7                   1
## #  with 19 more rows
…
